…
This returns the mean flight delay for all flights. However, what if we
wanted the mean flight delay for everything on the same day? We would
need to use group\_by() to do so.

    by_day <- group_by(flights, year, month, day)
    summarise(by_day, delay = mean(dep_delay, na.rm = TRUE))

    ## `summarise()` has grouped output by 'year', 'month'. You can override using the
    ## `.groups` argument.

    ## # A tibble: 365 × 4
    ## # Groups:   year, month [12]
    ##     year month   day delay
    ##    <int> <int> <int> <dbl>
    ##  1  2013     1     1 11.5 
    ##  2  2013     1     2 13.9 
    ##  3  2013     1     3 11.0 
    ##  4  2013     1     4  8.95
    ##  5  2013     1     5  5.73
    ##  6  2013     1     6  7.15
    ##  7  2013     1     7  5.42
    ##  8  2013     1     8  2.55
    ##  9  2013     1     9  2.28
    ## 10  2013     1    10  2.84
    ## # ℹ 355 more rows
…
